Brief Introduction to {tidyverse} – Learning R + Quarto
…
Missing values and negative values are printed in red.

Load a data.frame as a tibble

pacman::p_load(tidyverse)
tbl <- as_tibble(PlantGrowth)

Print a tibble

By default it prints 10 rows.

print(tbl) # To 10 rows

# A tibble: 30 × 2
   weight group
    <dbl> <fct>
 1   4.17 ctrl 
 2   5.58 ctrl 
 3   5.18 ctrl 
 4   6.11 ctrl 
 5   4.5  ctrl 
 6   4.61 ctrl 
 7   5.17 ctrl 
 8   4.53 ctrl 
 9   5.33 ctrl 
10   5.14 ctrl 
# ℹ 20 more rows

To print more rows you can:

print(tbl, n = 20) # To 20 rows

# A tibble: 30 × 2
   weight group
    <dbl> <fct>
 1   4.17 ctrl 
 2   5.58 ctrl 
 3   5.18 ctrl 
 4   6.11 ctrl 
 5   4.5  ctrl 
 6   4.61 ctrl 
 7   5.17 ctrl 
 8   4.53 ctrl 
 9   5.33 ctrl 
10   5.14 ctrl 
11   4.81 trt1 
12   4.17 trt1 
13   4.41 trt1 
14   3.59 trt1 
15   5.87 trt1 
16   3.83 trt1 
17   6.03 trt1 
18   4.89 trt1 
19   4.32 trt1 
20   4.69 trt1 
# ℹ 10 more rows
…
